"서비스구분","서비스ID","대분류명","소분류명","서비스상태","서비스명","결제방법","장소명","서비스대상","바로가기URL","장소X좌표","장소Y좌표","서비스개시시작일시","서비스개시종료일시","접수시작일시","접수종료일시","지역명"
"자체","S191218093639818738","시설대관","다목적실","접수중","노원구 공릉2동 자치회관 시네마(지하1층)","무료","노원구 공릉2동 ","제한없음","http://yeyak.seoul.go.kr/reservation/view.web?rsvsvcid=S191218093639818738","37.62128685408473","127.08337804882892","2019-12-20 00:00:00.0","2020-12-31 00:00:00.0","2019-12-20 09:00:00.0","2020-12-31 18:00:00.0","노원구"
"자체","S191220093758080864","시설대관","다목적실","접수중","노원구 공릉2동 자치회관 주민사랑방(2층)","무료","노원구 공릉2동 ","제한없음(서울시관련 시민)","http://yeyak.seoul.go.kr/reservation/view.web?rsvsvcid=S191220093758080864","37.62128685408473","127.08337804882892","2019-12-20 00:00:00.0","2020-12-31 00:00:00.0","2019-12-20 09:00:00.0","2020-12-31 18:00:00.0","노원구"
"자체","S191220101257469099","시설대관","다목적실","접수중","노원구 공릉2동 자치회관 다용도실(1층)","무료","노원구 공릉2동 ","제한없음(서울시 관련시민)","http://yeyak.seoul.go.kr/reservation/view.web?rsvsvcid=S191220101257469099","37.62128685408473","127.08337804882892","2019-12-20 00:00:00.0","2020-12-31 00:00:00.0","2019-12-20 09:00:00.0","2020-12-31 18:00:00.0","노원구"
"자체","S191220120935293026","시설대관","다목적실","접수중","노원구 공릉2동 자치회관 다목적방(3층)","무료","노원구 공릉2동 ","제한없음","http://yeyak.seoul.go.kr/reservation/view.web?rsvsvcid=S191220120935293026","37.62128685408473","127.08337804882892","2020-01-02 00:00:00.0","2020-12-31 00:00:00.0","2019-12-20 09:00:00.0","2020-12-31 18:00:00.0","노원구"
"자체","S150914152529993827","시설대관","다목적실","접수중","상계2동 자치회관 청소년다목적실(지하)","무료","노원구 상계2동","제한없음","http://yeyak.seoul.go.kr/reservation/view.web?rsvsvcid=S150914152529993827","37.657483942355846","127.06786537107807","2020-01-01 00:00:00.0","2020-12-31 00:00:00.0","2020-01-01 09:00:00.0","2020-12-31 18:00:00.0","노원구"
"자체","S150914153234225234","시설대관","다목적실","접수중","상계2동 자치회관 다목적방Ⅱ(5층)","무료","노원구 상계2동","제한없음","http://yeyak.seoul.go.kr/reservation/view.web?rsvsvcid=S150914153234225234","37.657483942355846","127.06786537107807","2020-01-01 00:00:00.0","2020-12-31 00:00:00.0","2020-01-01 09:00:00.0","2020-12-31 18:00:00.0","노원구"
"자체","S151027140731431068","시설대관","다목적실","접수중","상계2동 자치회관 다목적방Ι(5층)","무료","노원구 상계2동","제한없음","http://yeyak.seoul.go.kr/reservation/view.web?rsvsvcid=S151027140731431068","37.657483942355846","127.06786537107807","2020-01-01 00:00:00.0","2020-12-31 00:00:00.0","2020-01-01 09:00:00.0","2020-12-31 18:00:00.0","노원구"
"자체","S200106142725459927","시설대관","기타","접수중","노원구 하계1동 자치회관 지하탁구장","무료","노원구 하계1동 ","제한없음","http://yeyak.seoul.go.kr/reservation/view.web?rsvsvcid=S200106142725459927","37.640560685452726","127.0725588183393","2020-01-01 00:00:00.0","2020-12-31 00:00:00.0","2020-01-01 09:00:00.0","2020-12-28 18:00:00.0","노원구"
"자체","S200106160919327311","시설대관","다목적실","접수중","노원구 하계1동 자치회관 다목적실(2층)","무료","노원구 하계1동 ","제한없음","http://yeyak.seoul.go.kr/reservation/view.web?rsvsvcid=S200106160919327311","37.640560685452726","127.0725588183393","2020-01-01 00:00:00.0","2020-12-31 00:00:00.0","2020-01-01 09:00:00.0","2020-12-28 00:00:00.0","노원구"
"자체","S200106163458702627","시설대관","다목적실","접수중","노원구 하계1동 자치회관 지하 다용도방","무료","노원구 하계1동 ","제한없음","http://yeyak.seoul.go.kr/reservation/view.web?rsvsvcid=S200106163458702627","37.640560685452726","127.0725588183393","2020-01-01 00:00:00.0","2020-12-31 00:00:00.0","2020-01-01 09:00:00.0","2020-12-28 18:00:00.0","노원구"
"자체","S190103142401259035","시설대관","주민사랑방","접수중","노원구 중계본동 자치회관 불암골카페(지하1층)","무료","노원구 중계본동 >자치회관 불암골카페(지하1층)","제한없음(서울시 관련 시민)","http://yeyak.seoul.go.kr/reservation/view.web?rsvsvcid=S190103142401259035","37.64780319498588","127.0802847670049","2019-01-03 00:00:00.0","2020-12-31 00:00:00.0","2019-01-03 09:00:00.0","2020-12-31 18:00:00.0","노원구"
"자체","S200107163452998644","시설대관","다목적실","접수중","노원구 상계8동 자치회관 다목적방(3층)","무료","노원구 상계8동","제한없음","http://yeyak.seoul.go.kr/reservation/view.web?rsvsvcid=S200107163452998644","37.666736266754235","127.05155253078951","2020-01-02 00:00:00.0","2020-12-31 00:00:00.0","2020-01-02 09:00:00.0","2020-12-31 18:00:00.0","노원구"
"자체","S170331134827273965","시설대관","다목적실","접수중","노원구 원터 행복발전소 다목적연습실(지하)","무료","노원구 원터 행복발전소","제한없음","http://yeyak.seoul.go.kr/reservation/view.web?rsvsvcid=S170331134827273965","37.6588098068","127.0685238923","2020-01-01 00:00:00.0","2020-12-31 00:00:00.0","2020-01-01 09:00:00.0","2020-12-31 18:00:00.0","노원구"
"자체","S191227131227463833","시설대관","다목적실","접수중","노원구 중계1동 자치회관 다용도방(2층)","무료","중계1동주민센터>자치회관 다용도방(2층)","제한없음","http://yeyak.seoul.go.kr/reservation/view.web?rsvsvcid=S191227131227463833","37.652547847845504","127.0774749928354","2019-12-27 00:00:00.0","2020-12-31 00:00:00.0","2019-12-27 09:00:00.0","2020-12-31 18:00:00.0","노원구"
"자체","S200131135323868937","시설대관","다목적실","예약일시중지","노원구 월계3동 자치회관 다목적실(3층)","무료","노원구 월계3동","제한없음","http://yeyak.seoul.go.kr/reservation/view.web?rsvsvcid=S200131135323868937","37.62100408147733","127.06923224631003","2020-01-31 00:00:00.0","2020-12-31 00:00:00.0","2020-01-31 09:00:00.0","2020-12-23 18:00:00.0","노원구"
"자체","S200131160937123106","시설대관","강의실","예약일시중지","노원구 월계3동 자치회관 강의실(3층)","무료","노원구 월계3동","제한없음","http://yeyak.seoul.go.kr/reservation/view.web?rsvsvcid=S200131160937123106","37.62100408147733","127.06923224631003","2020-01-31 00:00:00.0","2020-12-31 00:00:00.0","2020-01-31 09:00:00.0","2020-12-28 18:00:00.0","노원구"
"자체","S200131161705107421","시설대관","강의실","예약일시중지","노원구 월계3동 자치회관 강의실(2층)","무료","노원구 월계3동","제한없음","http://yeyak.seoul.go.kr/reservation/view.web?rsvsvcid=S200131161705107421","37.62100408147733","127.06923224631003","2020-01-31 00:00:00.0","2020-12-31 00:00:00.0","2020-01-31 09:00:00.0","2020-12-28 18:00:00.0","노원구"
"자체","S200205180323721147","시설대관","강의실","접수중","노원구 월계2동 자치회관 다용도방(3층)","유료(요금안내문의)","노원구 월계2동","제한없음","http://yeyak.seoul.go.kr/reservation/view.web?rsvsvcid=S200205180323721147","37.63251005381773","127.050781163237","2020-02-05 00:00:00.0","2020-12-31 00:00:00.0","2020-02-05 09:00:00.0","2020-12-31 18:00:00.0","노원구"
"자체","S191217142945756464","시설대관","강의실","접수중","노원구 월계1동 자치회관 강의실(2층)","무료","노원구 월계1동","제한없음","http://yeyak.seoul.go.kr/reservation/view.web?rsvsvcid=S191217142945756464","37.619991321521084","127.06288359442555","2018-12-18 00:00:00.0","2020-12-31 00:00:00.0","2019-12-18 09:00:00.0","2020-12-31 18:00:00.0","노원구"
"자체","S191217174805256252","시설대관","다목적실","접수중","노원구 월계1동 자치회관 다용도방(3층)","무료","노원구 월계1동","제한없음","http://yeyak.seoul.go.kr/reservation/view.web?rsvsvcid=S191217174805256252","37.619991321521084","127.06288359442555","2019-12-18 00:00:00.0","2020-12-31 00:00:00.0","2019-12-18 09:00:00.0","2020-12-31 18:00:00.0","노원구"
"자체","S191227132424259582","시설대관","기타","접수중","노원구 중계1동 자치회관 지하다목적실(지하1층)","무료","중계1동주민센터>자치회관 지하탁구장(지하1층)","제한없음","http://yeyak.seoul.go.kr/reservation/view.web?rsvsvcid=S191227132424259582","37.652547847845504","127.0774749928354","2019-12-27 00:00:00.0","2020-12-31 00:00:00.0","2019-12-27 09:00:00.0","2020-12-31 18:00:00.0","노원구"
"자체","S191218170405370408","시설대관","강당","예약일시중지","노원구 중계23동 자치회관 대강당(5층)","무료","노원구 중계2.3동","제한없음","http://yeyak.seoul.go.kr/reservation/view.web?rsvsvcid=S191218170405370408","37.64213069042742","127.06873064614918","2020-01-01 00:00:00.0","2020-12-31 00:00:00.0","2020-01-01 00:00:00.0","2020-12-31 00:00:00.0","노원구"
"자체","S191218171222733002","시설대관","기타","예약일시중지","노원구 중계23동 자치회관 탁구장(지하)","무료","노원구 중계2.3동","제한없음","http://yeyak.seoul.go.kr/reservation/view.web?rsvsvcid=S191218171222733002","37.64213069042742","127.06873064614918","2020-01-01 00:00:00.0","2020-12-31 00:00:00.0","2020-01-01 00:00:00.0","2020-12-31 00:00:00.0","노원구"
"자체","S191217202229495854","시설대관","다목적실","접수중","노원구 월계1동 자치회관 다목적실(3층)","무료","노원구 월계1동>자치회관 다목적실(3층)","제한없음(서울시관련시민)","http://yeyak.seoul.go.kr/reservation/view.web?rsvsvcid=S191217202229495854","37.61988674416716","127.06300130813123","2019-12-18 00:00:00.0","2020-12-31 00:00:00.0","2019-12-18 09:00:00.0","2020-12-31 18:00:00.0","노원구"
"자체","S191224094002372052","시설대관","다목적실","예약일시중지","노원구 중계2.3동 자치회관 다목적실(2층)","무료","노원구 중계2.3동>자치회관 다목적실(2층)","제한없음","http://yeyak.seoul.go.kr/reservation/view.web?rsvsvcid=S191224094002372052","37.64213069042742","127.06873064614918","2020-01-01 00:00:00.0","2020-12-31 00:00:00.0","2020-01-01 00:00:00.0","2020-12-31 00:00:00.0","노원구"
"자체","S191218162253605655","시설대관","다목적실","접수중","노원구 상계9동 다용도방(2층)","무료","노원구 상계9동","제한없음","http://yeyak.seoul.go.kr/reservation/view.web?rsvsvcid=S191218162253605655","37.66452106334355","127.06381878422678","2019-12-31 00:00:00.0","2020-12-31 00:00:00.0","2019-12-31 09:00:00.0","2020-12-31 09:00:00.0","노원구"
"자체","S191218175653377551","시설대관","기타","접수중","노원구 상계9동 탁구장(지하)","무료","노원구 상계9동","제한없음","http://yeyak.seoul.go.kr/reservation/view.web?rsvsvcid=S191218175653377551","37.66452106334355","127.06381878422678","2019-12-31 00:00:00.0","2020-12-31 00:00:00.0","2019-12-31 09:00:00.0","2020-12-31 09:00:00.0","노원구"
"자체","S191219095355792608","시설대관","다목적실","접수중","노원구 상계9동 다목적방(3층)","무료","노원구 상계9동","제한없음","http://yeyak.seoul.go.kr/reservation/view.web?rsvsvcid=S191219095355792608","37.66452106334355","127.06381878422678","2019-12-31 00:00:00.0","2020-12-31 00:00:00.0","2019-12-31 09:00:00.0","2020-12-31 18:00:00.0","노원구"
"자체","S191224165753179985","시설대관","다목적실","접수중","노원구 상계8동 자치회관 다용도방(2층)","무료","노원구 상계8동>자치회관 다용도방(2층)","성인","http://yeyak.seoul.go.kr/reservation/view.web?rsvsvcid=S191224165753179985","37.666736266754235","127.05155253078951","2020-01-01 00:00:00.0","2020-12-31 00:00:00.0","2020-01-01 09:00:00.0","2020-12-31 18:00:00.0","노원구"
"자체","S191219142422406996","시설대관","다목적실","접수중","노원구 상계10동 자치회관 다용도방(지하)","무료","노원구 상계10동","제한없음","http://yeyak.seoul.go.kr/reservation/view.web?rsvsvcid=S191219142422406996","37.6612866101512","127.06026186654232","2020-01-01 00:00:00.0","2020-12-31 00:00:00.0","2020-01-01 09:00:00.0","2020-12-31 18:00:00.0","노원구"
"자체","S191219150351540321","시설대관","다목적실","접수중","노원구 상계10동 자치회관 다목적방(지하)","무료","노원구 상계10동","제한없음","http://yeyak.seoul.go.kr/reservation/view.web?rsvsvcid=S191219150351540321","37.6612866101512","127.06026186654232","2020-01-01 00:00:00.0","2020-12-31 00:00:00.0","2020-01-01 09:00:00.0","2020-12-31 18:00:00.0","노원구"
"자체","S191219152634235920","시설대관","강의실","접수중","노원구 상계10동 온수골행복발전소 배움터(지하)","무료","노원구 상계10동","제한없음","http://yeyak.seoul.go.kr/reservation/view.web?rsvsvcid=S191219152634235920","37.6612866101512","127.06026186654232","2020-01-01 00:00:00.0","2020-12-31 00:00:00.0","2020-01-01 09:00:00.0","2020-12-31 18:00:00.0","노원구"
"자체","S191219171128380505","시설대관","회의실","접수중","노원구 상계10동 온수골행복발전소 동네실(지하)","무료","노원구 상계10동","제한없음","http://yeyak.seoul.go.kr/reservation/view.web?rsvsvcid=S191219171128380505","37.6612866101512","127.06026186654232","2020-01-01 00:00:00.0","2020-12-31 00:00:00.0","2020-01-01 09:00:00.0","2020-12-31 18:00:00.0","노원구"
"자체","S191226092402481099","시설대관","다목적실","접수중","노원구 하계2동 자치회관 다목적교실(2층)","무료","노원구 하계2동 ","제한없음","http://yeyak.seoul.go.kr/reservation/view.web?rsvsvcid=S191226092402481099","37.63204371412677","127.06795098734535","2019-01-01 00:00:00.0","2020-12-31 00:00:00.0","2019-01-01 09:00:00.0","2020-12-31 23:59:00.0","노원구"
"자체","S191226154030699632","시설대관","다목적실","접수중","노원구 하계2동 자치회관 복지나눔방(지하)","무료","노원구 하계2동 ","제한없음","http://yeyak.seoul.go.kr/reservation/view.web?rsvsvcid=S191226154030699632","37.63204371412677","127.06795098734535","2019-01-01 00:00:00.0","2020-12-31 00:00:00.0","2019-01-01 09:00:00.0","2020-12-31 23:59:00.0","노원구"
"자체","S191227151731437691","시설대관","다목적실","접수중","노원구 하계2동 자치회관 희망나눔방(지하)","무료","노원구 하계2동 ","제한없음","http://yeyak.seoul.go.kr/reservation/view.web?rsvsvcid=S191227151731437691","37.63204371412677","127.06795098734535","2019-01-01 00:00:00.0","2020-12-31 00:00:00.0","2019-01-01 09:00:00.0","2020-12-31 23:59:00.0","노원구"
"자체","S191227153513047402","시설대관","다목적실","접수중","노원구 하계2동 자치회관 다용도방(2층)","무료","노원구 하계2동 ","제한없음","http://yeyak.seoul.go.kr/reservation/view.web?rsvsvcid=S191227153513047402","37.63204371412677","127.06795098734535","2019-01-01 00:00:00.0","2020-12-31 00:00:00.0","2019-01-01 09:00:00.0","2020-12-31 23:59:00.0","노원구"
"자체","S191227154320094044","시설대관","다목적실","접수중","노원구 하계2동 자치회관 문화나눔방(지하)","무료","노원구 하계2동 ","제한없음","http://yeyak.seoul.go.kr/reservation/view.web?rsvsvcid=S191227154320094044","37.63204371412677","127.06795098734535","2019-01-01 00:00:00.0","2020-12-31 00:00:00.0","2019-01-01 09:00:00.0","2020-12-31 23:59:00.0","노원구"
"자체","S191227160857994265","시설대관","다목적실","접수중","노원구 하계2동 자치회관 다목적실(2층)","무료","노원구 하계2동 ","제한없음","http://yeyak.seoul.go.kr/reservation/view.web?rsvsvcid=S191227160857994265","37.63204371412677","127.06795098734535","2019-01-01 00:00:00.0","2020-12-31 00:00:00.0","2019-01-01 09:00:00.0","2020-12-31 23:59:00.0","노원구"
"자체","S191231103056283489","시설대관","기타","예약일시중지","노원구 상계1동 자치회관 탁구장(지하1층)","무료","노원구 상계1동 ","제한없음","http://yeyak.seoul.go.kr/reservation/view.web?rsvsvcid=S191231103056283489","37.67992867081629","127.05496252387131","2020-01-02 00:00:00.0","2020-12-31 00:00:00.0","2020-01-06 00:00:00.0","2020-12-31 00:00:00.0","노원구"
"자체","S200116180419078092","시설대관","다목적실","예약일시중지","노원구 상계1동 자치회관 다목적실(5층)","무료","노원구 상계1동 ","제한없음","http://yeyak.seoul.go.kr/reservation/view.web?rsvsvcid=S200116180419078092","37.67992867081629","127.05496252387131","2020-01-02 00:00:00.0","2020-12-31 00:00:00.0","2020-01-02 00:00:00.0","2020-12-31 00:00:00.0","노원구"
"자체","S200118151245261479","시설대관","강의실","예약일시중지","노원구 상계1동 자치회관 강의실(4층)","무료","노원구 상계1동 ","제한없음","http://yeyak.seoul.go.kr/reservation/view.web?rsvsvcid=S200118151245261479","37.67992867081629","127.05496252387131","2020-01-02 00:00:00.0","2020-12-31 00:00:00.0","2020-01-02 00:00:00.0","2020-12-31 00:00:00.0","노원구"
"자체","S190103145256496677","시설대관","주민사랑방","접수중","노원구 중계본동 자치회관 체력단련실(지하)","무료","노원구 중계본동 ","제한없음(서울시 관련 시민)","http://yeyak.seoul.go.kr/reservation/view.web?rsvsvcid=S190103145256496677","37.64780319498588","127.0802847670049","2019-01-03 00:00:00.0","2020-12-31 00:00:00.0","2019-01-03 09:00:00.0","2020-12-31 18:00:00.0","노원구"
"자체","S190110131333860976","시설대관","주민사랑방","접수중","노원구 중계본동 자치회관 주민참여방(2층)","무료","노원구 중계본동 ","제한없음(서울시 관련 시민)","http://yeyak.seoul.go.kr/reservation/view.web?rsvsvcid=S190110131333860976","37.64780319498588","127.0802847670049","2019-01-10 00:00:00.0","2020-12-31 00:00:00.0","2019-01-10 09:00:00.0","2020-12-31 18:00:00.0","노원구"
"자체","S190110131802074355","시설대관","주민사랑방","접수중","노원구 중계본동 자치회관 다목적방(2층)","무료","노원구 중계본동 ","제한없음(서울시 관련 시민)","http://yeyak.seoul.go.kr/reservation/view.web?rsvsvcid=S190110131802074355","37.64780319498588","127.0802847670049","2019-01-10 00:00:00.0","2020-12-31 00:00:00.0","2019-01-10 09:00:00.0","2020-12-31 18:00:00.0","노원구"
"자체","S191219104528126145","시설대관","회의실","접수중","노원구 상계10동 자치회관 회의실(2층)","무료","노원구 상계10동>자치회관 회의실(2층)","제한없음","http://yeyak.seoul.go.kr/reservation/view.web?rsvsvcid=S191219104528126145","37.6612866101512","127.06026186654232","2020-01-01 00:00:00.0","2020-12-31 00:00:00.0","2020-01-01 09:00:00.0","2020-12-31 18:00:00.0","노원구"
"자체","S191224140720097271","시설대관","다목적실","접수중","노원구 중계1동 자치회관 다목적실(2층)","무료","중계1동주민센터>자치회관 다목적실(2층)","제한없음","http://yeyak.seoul.go.kr/reservation/view.web?rsvsvcid=S191224140720097271","37.652547847845504","127.0774749928354","2019-12-27 00:00:00.0","2020-12-31 00:00:00.0","2019-12-27 09:00:00.0","2020-12-31 18:00:00.0","노원구"
"자체","S200206112052100095","시설대관","다목적실","접수중","노원구 월계2동 자치회관 다목적실(3층)","유료(요금안내문의)","노원구 월계2동>자치회관 다목적실(3층)","제한없음","http://yeyak.seoul.go.kr/reservation/view.web?rsvsvcid=S200206112052100095","37.63251005381773","127.050781163237","2020-02-06 00:00:00.0","2020-12-31 00:00:00.0","2020-02-06 09:00:00.0","2020-12-31 18:00:00.0","노원구"