"메인 키","명칭","행정 시","행정 구","행정 동","전화번호"
"BE_LiST39-0001","Bongeunsa Temple","Seoul","Gangnam-gu","Samseong1-dong","02-511-6070"
"BE_LiST39-0002","Bulguksa Temple","Seoul","Gangnam-gu","Irwonbon-dong","02-445-4543"
"BE_LiST39-0003","Hwagyesa Temple","Seoul","Gangbuk-gu","Suyu1-dong","02-902-2663"
"BE_LiST39-0004","Samseongam Hermitage","Seoul","Gangbuk-gu","Suyu1-dong","02-988-1996"
"BE_LiST39-0005","Doseonsa Temple","Seoul","Gangbuk-gu","Ui-dong","02-993-3161"
"BE_LiST39-0006","Bogwangsa Temple?","Seoul","Gangbuk-gu","Insu-dong","02-993-3808"
"BE_LiST39-0007","Yongdeoksa Temple","Seoul","Gangbuk-gu","Ui-dong","02-993-1767"
"BE_LiST39-0008","Bonwonjeongsa Temple","Seoul","Gangbuk-gu","Insu-dong","02-902-7337"
"BE_LiST39-0009","Singeumsa Temple","Seoul","Gangbuk-gu","Ui-dong","02-998-4046"
"BE_LiST39-0010","Yaksasa Temple","Seoul","Gangseo-gu","Banghwa2-dong","02-2662-2551"
"BE_LiST39-0011","Mitasa Temple","Seoul","Gangseo-gu","Banghwa2-dong","02-2662-4736"
"BE_LiST39-0012","Beobseongsa Temple","Seoul","Gangseo-gu","Deungchon2-dong","02-2651-0805"
"BE_LiST39-0013","Gwaneumsa Temple","Seoul","Gwanak-gu","Namhyeon-dong","02-582-8609"
"BE_LiST39-0014","Yaksuam Hermitage","Seoul","Gwanak-gu","Samseong-dong","02-877-7514"
"BE_LiST39-0015","Jaunam Hermitage","Seoul","Gwanak-gu","Daehak-dong","02-882-3839"
"BE_LiST39-0016","Seongjuam Hermitage","Seoul","Gwanak-gu","Daehak-dong","02-877-7180"
"BE_LiST39-0017","Yeonghwasa?Temple","Seoul","Gwangjin-gu","Guui2-dong","02-444-4321"
"BE_LiST39-0018","Hoapsa Temple","Seoul","Geumcheon-gu","Siheung2-dong","02-803-4779"
"BE_LiST39-0019","Hangnimsa Temple","Seoul","Nowon-gu","Sanggye3.4-dong","02-936-1700"
"BE_LiST39-0020","Yongguram Heritage","Seoul","Nowon-gu","Sanggye3.4-dong","02-937-8206"
"BE_LiST39-0021","Hakdoam Heritage","Seoul","Nowon-gu","Junggyebon-dong","02-930-6611"
"BE_LiST39-0022","Wontongsa Temple","Seoul","Dobong-gu","Dobong1-dong","02-954-9944"
"BE_LiST39-0023","Cheonchuksa?Temple","Seoul","Dobong-gu","Dobong1-dong","02-954-1474"
"BE_LiST39-0024","Manworam Hermitage","Seoul","Dobong-gu","Dobong1-dong","02-955-3719"
"BE_LiST39-0025","Cheongnyangsa Temple","Seoul","Dongdaemun-gu","Jegi-dong","02-967-2743"
"BE_LiST39-0026","Yeonhwasa Temple","Seoul","Dongdaemun-gu","Hoegi-dong","02-962-6186"
"BE_LiST39-0027","Jijangsa Temple","Seoul","Dongjak-gu","Sadang2-dong","02-814-5257"
"BE_LiST39-0028","Sajaam Hermitage","Seoul","Dongjak-gu","Sangdo3-dong","02-825-1046"
"BE_LiST39-0029","Dalmasa Temple","Seoul","Dongjak-gu","Sadang2-dong","02-815-2746"
"BE_LiST39-0030","Okcheonam Hermitage","Seoul","Seodaemun-gu","Hongeun1-dong","02-395-4031"
"BE_LiST39-0031","Bongwonsa Temple","Seoul","Seodaemun-gu","Sinchon-dong","02-392-3007"
"BE_LiST39-0032","Daeseongsa Temple","Seoul","Seocho-gu","Seocho3-dong","02-583-1475"
"BE_LiST39-0033","Mitasa Temple","Seoul","Seongdong-gu","Oksu-dong","02-2297-4578"
"BE_LiST39-0034","Heungcheonsa Temple","Seoul","Seongbuk-gu","Donam2-dong","02-929-6611"
"BE_LiST39-0035","Jeokjosa Temple","Seoul","Seongbuk-gu","Donam2-dong","02-924-5362"
"BE_LiST39-0036","Mitasa Temple","Seoul","Seongbuk-gu","Samseon-dong","02-925-0435"
"BE_LiST39-0037","Bomunsa Temple","Seoul","Seongbuk-gu","Bomun-dong","02-928-3797"
"BE_LiST39-0038","Jeongbeobsa Temple","Seoul","Seongbuk-gu","Seongbuk-dong","02-762-0774"
"BE_LiST39-0039","Gaeunsa Temple","Seoul","Seongbuk-gu","Dongseon-dong","02-926-4069"
"BE_LiST39-0040","Bongguksa Temple","Seoul","Seongbuk-gu","Jeongneung2-dong","02-919-0211"
"BE_LiST39-0041","Gyeongguksa Temple","Seoul","Seongbuk-gu","Jeongneung3-dong","02-914-5447"
"BE_LiST39-0042","Naewonsa Temple","Seoul","Seongbuk-gu","Jeongneung4-dong","02-941-2011"
"BE_LiST39-0043","Suguksa Temple","Seoul","Eunpyeong-gu","Galhyeon2-dong","02-356-2001"
"BE_LiST39-0044","jingwansa Temple","Seoul","Eunpyeong-gu","Galhyeon1-dong","02-359-8410"
"BE_LiST39-0045","Samcheonsa Temple","Seoul","Eunpyeong-gu","Nokbeon-dong","02-353-3004"
"BE_LiST39-0046","Yongamsa Temple","Seoul","Eunpyeong-gu","Jingwan-dong","02-387-3216"
"BE_LiST39-0047","Jogyesa Temple","Seoul","Jongno-gu","Jongno1.2.3.4ga-dong","02-768-8600"
"BE_LiST39-0048","Geumseonsa Temple","Seoul","Jongno-gu","Pyeongchang-dong","02-395-9911"
"BE_LiST39-0049","Seunggasa Temple","Seoul","Jongno-gu","Pyeongchang-dong","02-379-2996"
"BE_LiST39-0050","Munsusa Temple","Seoul","Jongno-gu","Pyeongchang-dong","02-391-2062"
"BE_LiST39-0051","Inwangsa Temple","Seoul","Jongno-gu","Muak-dong","02-737-4434"
"BE_LiST39-0052","Daegaksa Temple","Seoul","Jongno-gu","Jongno1.2.3.4ga-dong","02-765-0972"
"BE_LiST39-0053","Cheongryongsa?Temple","Seoul","Jongno-gu","Sungin1-dong","02-763-4031"
"BE_LiST39-0054","Myogaksa Temple","Seoul","Jongno-gu","Sungin1-dong","02-763-3345"
"BE_LiST39-0055","Gamnoam Hermitage","Seoul","Jongno-gu","Jongno5.6ga-dong","02-762-5861"
"BE_LiST39-0056","Ilseonsa Temple","Seoul","Jongno-gu","Pyeongchang-dong","02-379-8697"
"BE_LiST39-0057","Sorim Temple","Seoul","Jongno-gu","Buam-dong","02-394-2145"
"BE_LiST39-0058","Anyangam Hermitage","Seoul","Jongno-gu","Changsin1-dong","02-744-6923"